…
    head(recode(dat$a11c020a,"'Eher unzufrieden'='A';else='B'"))

    ## [1] B A B B B B
    ## Levels: A B

Das Paket `tibble`
------------------

    install.packages("tibble")

    library(tibble)
    gpanel1 <- as_tibble(dat)
    gpanel1

    ## # A tibble: 100 × 23
    ##          a11c019a                         a11c020a         a11c021a
    ## *          <fctr>                           <fctr>           <fctr>
    ## 1  Eher zufrieden Weder zufrieden noch unzufrieden   Sehr zufrieden
    ## 2  Sehr zufrieden                 Eher unzufrieden Eher unzufrieden
    ## 3  Eher zufrieden                   Sehr zufrieden Eher unzufrieden
    ## 4  Eher zufrieden                   Sehr zufrieden   Eher zufrieden
    ## 5  Eher zufrieden                   Eher zufrieden   Eher zufrieden
    ## 6  Sehr zufrieden                   Eher zufrieden   Eher zufrieden
    ## 7  Eher zufrieden                   Eher zufrieden   Eher zufrieden
    ## 8  Eher zufrieden                   Eher zufrieden   Eher zufrieden
    ## 9  Sehr zufrieden                   Eher zufrieden   Sehr zufrieden
    ## 10 Sehr zufrieden                   Sehr zufrieden   Eher zufrieden
    ## # ... with 90 more rows, and 20 more variables: a11c022a <fctr>,
    ## #   a11c023a <fctr>, a11c024a <fctr>, a11c025a <fctr>, a11c026a <fctr>,
    ## #   a11c027a <fctr>, a11c028a <fctr>, a11c029a <fctr>, a11c030a <fctr>,
    ## #   a11c031a <fctr>, a11c032a <fctr>, a11c033a <fctr>, a11c034a <fctr>,
    ## #   bazq020a <chr>, a11d054a <fctr>, a11d056z <fctr>, a11d092a <fctr>,
    ## #   a11c100a <fctr>, a11c111a <fctr>, a11c109a <fctr>
…
